01 data_analysis
…
## Parsed with column specification:
## cols(
##   response = col_double(),
##   RT = col_double(),
##   picture = col_character(),
##   pictureFormat = col_character(),
##   color = col_character(),
##   category = col_character(),
##   timeSpent = col_double(),
##   submission_id = col_double()
## )

data

## # A tibble: 10,512 x 8
##    response    RT picture pictureFormat color category timeSpent
##       <dbl> <dbl> <chr>   <chr>         <chr> <chr>        <dbl>
##  1        3  5518 images~ Upright       White Vertrau~      10.5
##  2        2  4411 images~ Upright       White Vertrau~      10.5
##  3        4  3302 images~ Upright       White Vertrau~      10.5
##  4        4  7247 images~ Upright       White Vertrau~      10.5
##  5        4  2842 images~ Upright       Black Vertrau~      10.5
##  6        3 17204 images~ Upright       Black Vertrau~      10.5
##  7        4  2072 images~ Upright       Black Vertrau~      10.5
##  8        3  6233 images~ Upright       White Vertrau~      10.5
##  9        5  1917 images~ Upright       Black Vertrau~      10.5
## 10        5  4653 images~ Upright       Black Vertrau~      10.5
## # ... with 10,502 more rows, and 1 more variable: submission_id <dbl>
…
